EESchema Schematic File Version 2
LIBS:Remote_tester-rescue
LIBS:BJT
LIBS:Capacitor
LIBS:Diode_Rectifier
LIBS:Diode_Schottky
LIBS:Diode_Switching
LIBS:Diode_Zener
LIBS:EEPROM
LIBS:Inductor
LIBS:Microcontrollers
LIBS:Miscellaneous_Connectors
LIBS:Miscellaneous_Devices
LIBS:Modules
LIBS:MOSFET
LIBS:MOV
LIBS:Others
LIBS:Power
LIBS:PTC
LIBS:Regulator
LIBS:Resistor
LIBS:TBU
LIBS:TVS
LIBS:onsemi
LIBS:battery_management
LIBS:device
LIBS:opamp
LIBS:Remote_tester-cache
EELAYER 25 0
EELAYER END
$Descr A4 11693 8268
encoding utf-8
Sheet 4 7
Title ""
Date ""
Rev ""
Comp ""
Comment1 ""
Comment2 ""
Comment3 ""
Comment4 ""
$EndDescr
$Comp
L 4051 IC1
U 1 1 599EA506
P 3600 1300
F 0 "IC1" H 3200 1800 50  0000 L CNN
F 1 "4051" H 3200 800 50  0000 L CNN
F 2 "Packages_DIP:DIP-16_300" H 4050 1100 60  0001 C CNN
F 3 "" H 4050 1100 60  0000 C CNN
	1    3600 1300
	1    0    0    -1  
$EndComp
$Comp
L 4051 IC3
U 1 1 599EA559
P 3600 2550
F 0 "IC3" H 3200 3050 50  0000 L CNN
F 1 "4051" H 3200 2050 50  0000 L CNN
F 2 "Packages_DIP:DIP-16_300" H 4050 2350 60  0001 C CNN
F 3 "" H 4050 2350 60  0000 C CNN
	1    3600 2550
	1    0    0    -1  
$EndComp
$Comp
L 4051 IC4
U 1 1 599EA5AC
P 3600 3850
F 0 "IC4" H 3200 4350 50  0000 L CNN
F 1 "4051" H 3200 3350 50  0000 L CNN
F 2 "Packages_DIP:DIP-16_300" H 4050 3650 60  0001 C CNN
F 3 "" H 4050 3650 60  0000 C CNN
	1    3600 3850
	1    0    0    -1  
$EndComp
$Comp
L 4051 IC5
U 1 1 599EA5FF
P 3600 5050
F 0 "IC5" H 3200 5550 50  0000 L CNN
F 1 "4051" H 3200 4550 50  0000 L CNN
F 2 "Packages_DIP:DIP-16_300" H 4050 4850 60  0001 C CNN
F 3 "" H 4050 4850 60  0000 C CNN
	1    3600 5050
	1    0    0    -1  
$EndComp
$Comp
L LED LD1
U 1 1 599EA84A
P 1600 950
F 0 "LD1" H 1500 950 50  0000 C CNN
F 1 "LED" H 1650 950 50  0000 C CNN
F 2 "LEDs:LED_Chip_SMD_0805" H 1500 940 60  0001 C CNN
F 3 "" H 1600 950 60  0000 C CNN
	1    1600 950 
	-1   0    0    1   
$EndComp
$Comp
L LED LD2
U 1 1 599EA8BB
P 1600 1050
F 0 "LD2" H 1500 1050 50  0000 C CNN
F 1 "LED" H 1650 1050 50  0000 C CNN
F 2 "LEDs:LED_Chip_SMD_0805" H 1500 1040 60  0001 C CNN
F 3 "" H 1600 1050 60  0000 C CNN
	1    1600 1050
	-1   0    0    1   
$EndComp
$Comp
L LED LD3
U 1 1 599EA92A
P 1600 1150
F 0 "LD3" H 1500 1150 50  0000 C CNN
F 1 "LED" H 1650 1150 50  0000 C CNN
F 2 "LEDs:LED_Chip_SMD_0805" H 1500 1140 60  0001 C CNN
F 3 "" H 1600 1150 60  0000 C CNN
	1    1600 1150
	-1   0    0    1   
$EndComp
$Comp
L LED LD4
U 1 1 599EA957
P 1600 1250
F 0 "LD4" H 1500 1250 50  0000 C CNN
F 1 "LED" H 1650 1250 50  0000 C CNN
F 2 "LEDs:LED_Chip_SMD_0805" H 1500 1240 60  0001 C CNN
F 3 "" H 1600 1250 60  0000 C CNN
	1    1600 1250
	-1   0    0    1   
$EndComp
$Comp
L LED LD5
U 1 1 599EA997
P 1600 1350
F 0 "LD5" H 1500 1350 50  0000 C CNN
F 1 "LED" H 1650 1350 50  0000 C CNN
F 2 "LEDs:LED_Chip_SMD_0805" H 1500 1340 60  0001 C CNN
F 3 "" H 1600 1350 60  0000 C CNN
	1    1600 1350
	-1   0    0    1   
$EndComp
$Comp
L LED LD6
U 1 1 599EA9C6
P 1600 1450
F 0 "LD6" H 1500 1450 50  0000 C CNN
F 1 "LED" H 1650 1450 50  0000 C CNN
F 2 "LEDs:LED_Chip_SMD_0805" H 1500 1440 60  0001 C CNN
F 3 "" H 1600 1450 60  0000 C CNN
	1    1600 1450
	-1   0    0    1   
$EndComp
$Comp
L LED LD7
U 1 1 599EA9FC
P 1600 1550
F 0 "LD7" H 1500 1550 50  0000 C CNN
F 1 "LED" H 1650 1550 50  0000 C CNN
F 2 "LEDs:LED_Chip_SMD_0805" H 1500 1540 60  0001 C CNN
F 3 "" H 1600 1550 60  0000 C CNN
	1    1600 1550
	-1   0    0    1   
$EndComp
$Comp
L LED LD8
U 1 1 599EAA31
P 1600 1650
F 0 "LD8" H 1500 1650 50  0000 C CNN
F 1 "LED" H 1650 1650 50  0000 C CNN
F 2 "LEDs:LED_Chip_SMD_0805" H 1500 1640 60  0001 C CNN
F 3 "" H 1600 1650 60  0000 C CNN
	1    1600 1650
	-1   0    0    1   
$EndComp
$Comp
L 4051 IC6
U 1 1 599EC876
P 3600 6400
F 0 "IC6" H 3200 6900 50  0000 L CNN
F 1 "4051" H 3200 5900 50  0000 L CNN
F 2 "Packages_DIP:DIP-16_300" H 4050 6200 60  0001 C CNN
F 3 "" H 4050 6200 60  0000 C CNN
	1    3600 6400
	1    0    0    -1  
$EndComp
Text HLabel 5650 800  1    50   Output ~ 0
VCC
Wire Wire Line
	2400 950  1800 950 
Wire Wire Line
	2400 1050 1800 1050
Wire Wire Line
	1800 1150 2400 1150
Wire Wire Line
	2400 1250 1800 1250
Wire Wire Line
	2400 1350 1800 1350
Wire Wire Line
	2400 1450 1800 1450
Wire Wire Line
	2400 1550 1800 1550
Wire Wire Line
	2400 1650 1800 1650
Wire Wire Line
	2400 2200 1800 2200
Wire Wire Line
	2400 2300 1800 2300
Wire Wire Line
	2400 2400 1800 2400
Wire Wire Line
	2400 2500 1800 2500
Wire Wire Line
	2400 2600 1800 2600
Wire Wire Line
	2400 2700 1800 2700
Wire Wire Line
	2400 2800 1800 2800
Wire Wire Line
	2400 2900 1800 2900
Wire Wire Line
	2400 3500 1800 3500
Wire Wire Line
	2400 3600 1800 3600
Wire Wire Line
	2400 3700 1800 3700
Wire Wire Line
	2400 3800 1800 3800
Wire Wire Line
	2400 3900 1800 3900
Wire Wire Line
	2400 4000 1800 4000
Wire Wire Line
	2400 4100 1800 4100
Wire Wire Line
	2400 4200 1800 4200
Wire Wire Line
	2400 4700 1800 4700
Wire Wire Line
	2400 4800 1800 4800
Wire Wire Line
	2400 4900 1800 4900
Wire Wire Line
	2400 5000 1800 5000
Wire Wire Line
	2400 5100 1800 5100
Wire Wire Line
	2400 5200 1800 5200
Wire Wire Line
	2400 5300 1800 5300
Wire Wire Line
	2400 5400 1800 5400
Wire Wire Line
	2400 6050 1800 6050
Wire Wire Line
	2400 6150 1800 6150
Wire Wire Line
	2400 6250 1800 6250
Wire Wire Line
	2400 6350 1800 6350
Wire Wire Line
	2400 6450 1800 6450
Wire Wire Line
	2400 6550 1800 6550
Wire Wire Line
	2400 6650 1800 6650
Wire Wire Line
	2400 6750 1800 6750
Wire Wire Line
	1400 6050 1100 6050
Wire Wire Line
	1100 950  1100 7100
Wire Wire Line
	1400 6150 1100 6150
Connection ~ 1100 6150
Wire Wire Line
	1400 6250 1100 6250
Connection ~ 1100 6250
Wire Wire Line
	1400 6350 1100 6350
Connection ~ 1100 6350
Wire Wire Line
	1400 6450 1100 6450
Connection ~ 1100 6450
Wire Wire Line
	1400 6550 1100 6550
Connection ~ 1100 6550
Wire Wire Line
	1400 6650 1100 6650
Connection ~ 1100 6650
Wire Wire Line
	1400 6750 1100 6750
Connection ~ 1100 6750
Wire Wire Line
	1400 4700 1100 4700
Connection ~ 1100 6050
Wire Wire Line
	1400 3500 1100 3500
Connection ~ 1100 4700
Wire Wire Line
	1400 2200 1100 2200
Connection ~ 1100 3500
Wire Wire Line
	1400 950  1100 950 
Connection ~ 1100 2200
Wire Wire Line
	1400 1050 1100 1050
Connection ~ 1100 1050
Wire Wire Line
	1400 1150 1100 1150
Connection ~ 1100 1150
Wire Wire Line
	1400 1250 1100 1250
Connection ~ 1100 1250
Wire Wire Line
	1400 1350 1100 1350
Connection ~ 1100 1350
Wire Wire Line
	1100 1450 1400 1450
Connection ~ 1100 1450
Wire Wire Line
	1400 1550 1100 1550
Connection ~ 1100 1550
Wire Wire Line
	1400 1650 1100 1650
Connection ~ 1100 1650
Wire Wire Line
	1400 2300 1100 2300
Connection ~ 1100 2300
Wire Wire Line
	1400 2400 1100 2400
Connection ~ 1100 2400
Wire Wire Line
	1400 2500 1100 2500
Connection ~ 1100 2500
Wire Wire Line
	1400 2600 1100 2600
Connection ~ 1100 2600
Wire Wire Line
	1400 2700 1100 2700
Connection ~ 1100 2700
Wire Wire Line
	1400 2800 1100 2800
Connection ~ 1100 2800
Wire Wire Line
	1400 2900 1100 2900
Connection ~ 1100 2900
Wire Wire Line
	1400 3600 1100 3600
Connection ~ 1100 3600
Wire Wire Line
	1400 3700 1100 3700
Connection ~ 1100 3700
Wire Wire Line
	1400 3800 1100 3800
Connection ~ 1100 3800
Wire Wire Line
	1400 3900 1100 3900
Connection ~ 1100 3900
Wire Wire Line
	1400 4000 1100 4000
Connection ~ 1100 4000
Wire Wire Line
	1400 4100 1100 4100
Connection ~ 1100 4100
Wire Wire Line
	1400 4200 1100 4200
Connection ~ 1100 4200
Wire Wire Line
	1400 4800 1100 4800
Connection ~ 1100 4800
Wire Wire Line
	1400 4900 1100 4900
Connection ~ 1100 4900
Wire Wire Line
	1400 5000 1100 5000
Connection ~ 1100 5000
Wire Wire Line
	1400 5100 1100 5100
Connection ~ 1100 5100
Wire Wire Line
	1400 5200 1100 5200
Connection ~ 1100 5200
Wire Wire Line
	1400 5300 1100 5300
Connection ~ 1100 5300
Wire Wire Line
	1400 5400 1100 5400
Connection ~ 1100 5400
Wire Wire Line
	4150 950  5650 950 
Wire Wire Line
	5650 800  5650 6050
Wire Wire Line
	5650 2200 4150 2200
Connection ~ 5650 950 
Wire Wire Line
	5650 3500 4150 3500
Connection ~ 5650 2200
Wire Wire Line
	5650 4700 4150 4700
Connection ~ 5650 3500
Wire Wire Line
	5650 6050 4150 6050
Connection ~ 5650 4700
Text HLabel 4850 7150 3    50   Output ~ 0
GND
Text HLabel 1100 7100 3    50   Output ~ 0
GND
Text HLabel 4150 1150 2    50   Input ~ 0
PC9
Text HLabel 4150 1250 2    50   Input ~ 0
PC8
Text HLabel 4150 1350 2    50   Input ~ 0
PC7
$Comp
L LED LD9
U 1 1 59A02305
P 1600 2200
F 0 "LD9" H 1500 2200 50  0000 C CNN
F 1 "LED" H 1650 2200 50  0000 C CNN
F 2 "LEDs:LED_Chip_SMD_0805" H 1500 2190 60  0001 C CNN
F 3 "" H 1600 2200 60  0000 C CNN
	1    1600 2200
	-1   0    0    1   
$EndComp
$Comp
L LED LD10
U 1 1 59A0230B
P 1600 2300
F 0 "LD10" H 1500 2300 50  0000 C CNN
F 1 "LED" H 1650 2300 50  0000 C CNN
F 2 "LEDs:LED_Chip_SMD_0805" H 1500 2290 60  0001 C CNN
F 3 "" H 1600 2300 60  0000 C CNN
	1    1600 2300
	-1   0    0    1   
$EndComp
$Comp
L LED LD11
U 1 1 59A02311
P 1600 2400
F 0 "LD11" H 1500 2400 50  0000 C CNN
F 1 "LED" H 1650 2400 50  0000 C CNN
F 2 "LEDs:LED_Chip_SMD_0805" H 1500 2390 60  0001 C CNN
F 3 "" H 1600 2400 60  0000 C CNN
	1    1600 2400
	-1   0    0    1   
$EndComp
$Comp
L LED LD12
U 1 1 59A02317
P 1600 2500
F 0 "LD12" H 1500 2500 50  0000 C CNN
F 1 "LED" H 1650 2500 50  0000 C CNN
F 2 "LEDs:LED_Chip_SMD_0805" H 1500 2490 60  0001 C CNN
F 3 "" H 1600 2500 60  0000 C CNN
	1    1600 2500
	-1   0    0    1   
$EndComp
$Comp
L LED LD13
U 1 1 59A0231D
P 1600 2600
F 0 "LD13" H 1500 2600 50  0000 C CNN
F 1 "LED" H 1650 2600 50  0000 C CNN
F 2 "LEDs:LED_Chip_SMD_0805" H 1500 2590 60  0001 C CNN
F 3 "" H 1600 2600 60  0000 C CNN
	1    1600 2600
	-1   0    0    1   
$EndComp
$Comp
L LED LD14
U 1 1 59A02323
P 1600 2700
F 0 "LD14" H 1500 2700 50  0000 C CNN
F 1 "LED" H 1650 2700 50  0000 C CNN
F 2 "LEDs:LED_Chip_SMD_0805" H 1500 2690 60  0001 C CNN
F 3 "" H 1600 2700 60  0000 C CNN
	1    1600 2700
	-1   0    0    1   
$EndComp
$Comp
L LED LD15
U 1 1 59A02329
P 1600 2800
F 0 "LD15" H 1500 2800 50  0000 C CNN
F 1 "LED" H 1650 2800 50  0000 C CNN
F 2 "LEDs:LED_Chip_SMD_0805" H 1500 2790 60  0001 C CNN
F 3 "" H 1600 2800 60  0000 C CNN
	1    1600 2800
	-1   0    0    1   
$EndComp
$Comp
L LED LD16
U 1 1 59A0232F
P 1600 2900
F 0 "LD16" H 1500 2900 50  0000 C CNN
F 1 "LED" H 1650 2900 50  0000 C CNN
F 2 "LEDs:LED_Chip_SMD_0805" H 1500 2890 60  0001 C CNN
F 3 "" H 1600 2900 60  0000 C CNN
	1    1600 2900
	-1   0    0    1   
$EndComp
$Comp
L LED LD17
U 1 1 59A03CC1
P 1600 3500
F 0 "LD17" H 1500 3500 50  0000 C CNN
F 1 "LED" H 1650 3500 50  0000 C CNN
F 2 "LEDs:LED_Chip_SMD_0805" H 1500 3490 60  0001 C CNN
F 3 "" H 1600 3500 60  0000 C CNN
	1    1600 3500
	-1   0    0    1   
$EndComp
$Comp
L LED LD18
U 1 1 59A03CC7
P 1600 3600
F 0 "LD18" H 1500 3600 50  0000 C CNN
F 1 "LED" H 1650 3600 50  0000 C CNN
F 2 "LEDs:LED_Chip_SMD_0805" H 1500 3590 60  0001 C CNN
F 3 "" H 1600 3600 60  0000 C CNN
	1    1600 3600
	-1   0    0    1   
$EndComp
$Comp
L LED LD19
U 1 1 59A03CCD
P 1600 3700
F 0 "LD19" H 1500 3700 50  0000 C CNN
F 1 "LED" H 1650 3700 50  0000 C CNN
F 2 "LEDs:LED_Chip_SMD_0805" H 1500 3690 60  0001 C CNN
F 3 "" H 1600 3700 60  0000 C CNN
	1    1600 3700
	-1   0    0    1   
$EndComp
$Comp
L LED LD20
U 1 1 59A03CD3
P 1600 3800
F 0 "LD20" H 1500 3800 50  0000 C CNN
F 1 "LED" H 1650 3800 50  0000 C CNN
F 2 "LEDs:LED_Chip_SMD_0805" H 1500 3790 60  0001 C CNN
F 3 "" H 1600 3800 60  0000 C CNN
	1    1600 3800
	-1   0    0    1   
$EndComp
$Comp
L LED LD21
U 1 1 59A03CD9
P 1600 3900
F 0 "LD21" H 1500 3900 50  0000 C CNN
F 1 "LED" H 1650 3900 50  0000 C CNN
F 2 "LEDs:LED_Chip_SMD_0805" H 1500 3890 60  0001 C CNN
F 3 "" H 1600 3900 60  0000 C CNN
	1    1600 3900
	-1   0    0    1   
$EndComp
$Comp
L LED LD22
U 1 1 59A03CDF
P 1600 4000
F 0 "LD22" H 1500 4000 50  0000 C CNN
F 1 "LED" H 1650 4000 50  0000 C CNN
F 2 "LEDs:LED_Chip_SMD_0805" H 1500 3990 60  0001 C CNN
F 3 "" H 1600 4000 60  0000 C CNN
	1    1600 4000
	-1   0    0    1   
$EndComp
$Comp
L LED LD23
U 1 1 59A03CE5
P 1600 4100
F 0 "LD23" H 1500 4100 50  0000 C CNN
F 1 "LED" H 1650 4100 50  0000 C CNN
F 2 "LEDs:LED_Chip_SMD_0805" H 1500 4090 60  0001 C CNN
F 3 "" H 1600 4100 60  0000 C CNN
	1    1600 4100
	-1   0    0    1   
$EndComp
$Comp
L LED LD24
U 1 1 59A03CEB
P 1600 4200
F 0 "LD24" H 1500 4200 50  0000 C CNN
F 1 "LED" H 1650 4200 50  0000 C CNN
F 2 "LEDs:LED_Chip_SMD_0805" H 1500 4190 60  0001 C CNN
F 3 "" H 1600 4200 60  0000 C CNN
	1    1600 4200
	-1   0    0    1   
$EndComp
$Comp
L LED LD25
U 1 1 59A04495
P 1600 4700
F 0 "LD25" H 1500 4700 50  0000 C CNN
F 1 "LED" H 1650 4700 50  0000 C CNN
F 2 "LEDs:LED_Chip_SMD_0805" H 1500 4690 60  0001 C CNN
F 3 "" H 1600 4700 60  0000 C CNN
	1    1600 4700
	-1   0    0    1   
$EndComp
$Comp
L LED LD26
U 1 1 59A0449B
P 1600 4800
F 0 "LD26" H 1500 4800 50  0000 C CNN
F 1 "LED" H 1650 4800 50  0000 C CNN
F 2 "LEDs:LED_Chip_SMD_0805" H 1500 4790 60  0001 C CNN
F 3 "" H 1600 4800 60  0000 C CNN
	1    1600 4800
	-1   0    0    1   
$EndComp
$Comp
L LED LD27
U 1 1 59A044A1
P 1600 4900
F 0 "LD27" H 1500 4900 50  0000 C CNN
F 1 "LED" H 1650 4900 50  0000 C CNN
F 2 "LEDs:LED_Chip_SMD_0805" H 1500 4890 60  0001 C CNN
F 3 "" H 1600 4900 60  0000 C CNN
	1    1600 4900
	-1   0    0    1   
$EndComp
$Comp
L LED LD28
U 1 1 59A044A7
P 1600 5000
F 0 "LD28" H 1500 5000 50  0000 C CNN
F 1 "LED" H 1650 5000 50  0000 C CNN
F 2 "LEDs:LED_Chip_SMD_0805" H 1500 4990 60  0001 C CNN
F 3 "" H 1600 5000 60  0000 C CNN
	1    1600 5000
	-1   0    0    1   
$EndComp
$Comp
L LED LD29
U 1 1 59A044AD
P 1600 5100
F 0 "LD29" H 1500 5100 50  0000 C CNN
F 1 "LED" H 1650 5100 50  0000 C CNN
F 2 "LEDs:LED_Chip_SMD_0805" H 1500 5090 60  0001 C CNN
F 3 "" H 1600 5100 60  0000 C CNN
	1    1600 5100
	-1   0    0    1   
$EndComp
$Comp
L LED LD30
U 1 1 59A044B3
P 1600 5200
F 0 "LD30" H 1500 5200 50  0000 C CNN
F 1 "LED" H 1650 5200 50  0000 C CNN
F 2 "LEDs:LED_Chip_SMD_0805" H 1500 5190 60  0001 C CNN
F 3 "" H 1600 5200 60  0000 C CNN
	1    1600 5200
	-1   0    0    1   
$EndComp
$Comp
L LED LD31
U 1 1 59A044B9
P 1600 5300
F 0 "LD31" H 1500 5300 50  0000 C CNN
F 1 "LED" H 1650 5300 50  0000 C CNN
F 2 "LEDs:LED_Chip_SMD_0805" H 1500 5290 60  0001 C CNN
F 3 "" H 1600 5300 60  0000 C CNN
	1    1600 5300
	-1   0    0    1   
$EndComp
$Comp
L LED LD32
U 1 1 59A044BF
P 1600 5400
F 0 "LD32" H 1500 5400 50  0000 C CNN
F 1 "LED" H 1650 5400 50  0000 C CNN
F 2 "LEDs:LED_Chip_SMD_0805" H 1500 5390 60  0001 C CNN
F 3 "" H 1600 5400 60  0000 C CNN
	1    1600 5400
	-1   0    0    1   
$EndComp
$Comp
L LED LD33
U 1 1 59A052AE
P 1600 6050
F 0 "LD33" H 1500 6050 50  0000 C CNN
F 1 "LED" H 1650 6050 50  0000 C CNN
F 2 "LEDs:LED_Chip_SMD_0805" H 1500 6040 60  0001 C CNN
F 3 "" H 1600 6050 60  0000 C CNN
	1    1600 6050
	-1   0    0    1   
$EndComp
$Comp
L LED LD34
U 1 1 59A052B4
P 1600 6150
F 0 "LD34" H 1500 6150 50  0000 C CNN
F 1 "LED" H 1650 6150 50  0000 C CNN
F 2 "LEDs:LED_Chip_SMD_0805" H 1500 6140 60  0001 C CNN
F 3 "" H 1600 6150 60  0000 C CNN
	1    1600 6150
	-1   0    0    1   
$EndComp
$Comp
L LED LD35
U 1 1 59A052BA
P 1600 6250
F 0 "LD35" H 1500 6250 50  0000 C CNN
F 1 "LED" H 1650 6250 50  0000 C CNN
F 2 "LEDs:LED_Chip_SMD_0805" H 1500 6240 60  0001 C CNN
F 3 "" H 1600 6250 60  0000 C CNN
	1    1600 6250
	-1   0    0    1   
$EndComp
$Comp
L LED LD36
U 1 1 59A052C0
P 1600 6350
F 0 "LD36" H 1500 6350 50  0000 C CNN
F 1 "LED" H 1650 6350 50  0000 C CNN
F 2 "LEDs:LED_Chip_SMD_0805" H 1500 6340 60  0001 C CNN
F 3 "" H 1600 6350 60  0000 C CNN
	1    1600 6350
	-1   0    0    1   
$EndComp
$Comp
L LED LD37
U 1 1 59A052C6
P 1600 6450
F 0 "LD37" H 1500 6450 50  0000 C CNN
F 1 "LED" H 1650 6450 50  0000 C CNN
F 2 "LEDs:LED_Chip_SMD_0805" H 1500 6440 60  0001 C CNN
F 3 "" H 1600 6450 60  0000 C CNN
	1    1600 6450
	-1   0    0    1   
$EndComp
$Comp
L LED LD38
U 1 1 59A052CC
P 1600 6550
F 0 "LD38" H 1500 6550 50  0000 C CNN
F 1 "LED" H 1650 6550 50  0000 C CNN
F 2 "LEDs:LED_Chip_SMD_0805" H 1500 6540 60  0001 C CNN
F 3 "" H 1600 6550 60  0000 C CNN
	1    1600 6550
	-1   0    0    1   
$EndComp
$Comp
L LED LD39
U 1 1 59A052D2
P 1600 6650
F 0 "LD39" H 1500 6650 50  0000 C CNN
F 1 "LED" H 1650 6650 50  0000 C CNN
F 2 "LEDs:LED_Chip_SMD_0805" H 1500 6640 60  0001 C CNN
F 3 "" H 1600 6650 60  0000 C CNN
	1    1600 6650
	-1   0    0    1   
$EndComp
$Comp
L LED LD40
U 1 1 59A052D8
P 1600 6750
F 0 "LD40" H 1500 6750 50  0000 C CNN
F 1 "LED" H 1650 6750 50  0000 C CNN
F 2 "LEDs:LED_Chip_SMD_0805" H 1500 6740 60  0001 C CNN
F 3 "" H 1600 6750 60  0000 C CNN
	1    1600 6750
	-1   0    0    1   
$EndComp
Wire Notes Line
	5500 7550 750  7550
Wire Notes Line
	750  7550 750  600 
Text Notes 3300 7750 2    50   ~ 0
Rangkaian Mux_Led
Wire Wire Line
	4150 1450 4850 1450
Wire Wire Line
	4850 1450 4850 7150
Wire Wire Line
	4150 6750 4850 6750
Connection ~ 4850 6750
Wire Wire Line
	4150 6650 4850 6650
Connection ~ 4850 6650
Wire Wire Line
	4150 6550 4850 6550
Connection ~ 4850 6550
Wire Wire Line
	4150 5400 4850 5400
Connection ~ 4850 5400
Wire Wire Line
	4150 5300 4850 5300
Connection ~ 4850 5300
Wire Wire Line
	4150 5200 4850 5200
Connection ~ 4850 5200
Wire Wire Line
	4150 4200 4850 4200
Connection ~ 4850 4200
Wire Wire Line
	4150 4100 4850 4100
Connection ~ 4850 4100
Wire Wire Line
	4150 4000 4850 4000
Connection ~ 4850 4000
Wire Wire Line
	4150 2900 4850 2900
Connection ~ 4850 2900
Wire Wire Line
	4150 2800 4850 2800
Connection ~ 4850 2800
Wire Wire Line
	4150 2700 4850 2700
Connection ~ 4850 2700
Wire Wire Line
	4150 1550 4850 1550
Connection ~ 4850 1550
Wire Wire Line
	4150 1650 4850 1650
Connection ~ 4850 1650
Text HLabel 4150 2400 2    50   Input ~ 0
PC9
Text HLabel 4150 2500 2    50   Input ~ 0
PC8
Text HLabel 4150 2600 2    50   Input ~ 0
PC7
Text HLabel 4150 3700 2    50   Input ~ 0
PC9
Text HLabel 4150 3800 2    50   Input ~ 0
PC8
Text HLabel 4150 3900 2    50   Input ~ 0
PC7
Text HLabel 4150 4900 2    50   Input ~ 0
PC9
Text HLabel 4150 5000 2    50   Input ~ 0
PC8
Text HLabel 4150 5100 2    50   Input ~ 0
PC7
Text HLabel 4150 6250 2    50   Input ~ 0
PC9
Text HLabel 4150 6350 2    50   Input ~ 0
PC8
Text HLabel 4150 6450 2    50   Input ~ 0
PC7
Text HLabel 4500 1050 2    50   Input ~ 0
PC6
Text HLabel 4500 2300 2    50   Input ~ 0
PB15
Text HLabel 4500 3600 2    50   Input ~ 0
PB14
Text HLabel 4500 4800 2    50   Input ~ 0
PB13
Text HLabel 4500 6150 2    50   Input ~ 0
PB12
Wire Wire Line
	4150 6150 4500 6150
Wire Wire Line
	4150 4800 4500 4800
Wire Wire Line
	4150 3600 4500 3600
Wire Wire Line
	4150 2300 4500 2300
Wire Wire Line
	4150 1050 4500 1050
$Comp
L RES R5
U 1 1 59A042ED
P 2600 950
F 0 "R5" H 2650 950 50  0000 C CNN
F 1 "220" H 2500 950 50  0000 C CNN
F 2 "Resistors:R_Chip_SMD_0603" H 2600 880 30  0001 C CNN
F 3 "" V 2600 950 30  0000 C CNN
	1    2600 950 
	1    0    0    -1  
$EndComp
$Comp
L RES R6
U 1 1 59A04368
P 2600 1050
F 0 "R6" H 2650 1050 50  0000 C CNN
F 1 "220" H 2500 1050 50  0000 C CNN
F 2 "Resistors:R_Chip_SMD_0603" H 2600 980 30  0001 C CNN
F 3 "" V 2600 1050 30  0000 C CNN
	1    2600 1050
	1    0    0    -1  
$EndComp
$Comp
L RES R7
U 1 1 59A043E9
P 2600 1150
F 0 "R7" H 2650 1150 50  0000 C CNN
F 1 "220" H 2500 1150 50  0000 C CNN
F 2 "Resistors:R_Chip_SMD_0603" H 2600 1080 30  0001 C CNN
F 3 "" V 2600 1150 30  0000 C CNN
	1    2600 1150
	1    0    0    -1  
$EndComp
$Comp
L RES R8
U 1 1 59A04460
P 2600 1250
F 0 "R8" H 2650 1250 50  0000 C CNN
F 1 "220" H 2500 1250 50  0000 C CNN
F 2 "Resistors:R_Chip_SMD_0603" H 2600 1180 30  0001 C CNN
F 3 "" V 2600 1250 30  0000 C CNN
	1    2600 1250
	1    0    0    -1  
$EndComp
$Comp
L RES R9
U 1 1 59A044E5
P 2600 1350
F 0 "R9" H 2650 1350 50  0000 C CNN
F 1 "220" H 2500 1350 50  0000 C CNN
F 2 "Resistors:R_Chip_SMD_0603" H 2600 1280 30  0001 C CNN
F 3 "" V 2600 1350 30  0000 C CNN
	1    2600 1350
	1    0    0    -1  
$EndComp
$Comp
L RES R10
U 1 1 59A04564
P 2600 1450
F 0 "R10" H 2650 1450 50  0000 C CNN
F 1 "220" H 2500 1450 50  0000 C CNN
F 2 "Resistors:R_Chip_SMD_0603" H 2600 1380 30  0001 C CNN
F 3 "" V 2600 1450 30  0000 C CNN
	1    2600 1450
	1    0    0    -1  
$EndComp
$Comp
L RES R11
U 1 1 59A045E5
P 2600 1550
F 0 "R11" H 2650 1550 50  0000 C CNN
F 1 "220" H 2500 1550 50  0000 C CNN
F 2 "Resistors:R_Chip_SMD_0603" H 2600 1480 30  0001 C CNN
F 3 "" V 2600 1550 30  0000 C CNN
	1    2600 1550
	1    0    0    -1  
$EndComp
$Comp
L RES R12
U 1 1 59A04662
P 2600 1650
F 0 "R12" H 2650 1650 50  0000 C CNN
F 1 "220" H 2500 1650 50  0000 C CNN
F 2 "Resistors:R_Chip_SMD_0603" H 2600 1580 30  0001 C CNN
F 3 "" V 2600 1650 30  0000 C CNN
	1    2600 1650
	1    0    0    -1  
$EndComp
Wire Wire Line
	3050 950  2800 950 
Wire Wire Line
	3050 1050 2800 1050
Wire Wire Line
	3050 1150 2800 1150
Wire Wire Line
	3050 1250 2800 1250
Wire Wire Line
	3050 1350 2800 1350
Wire Wire Line
	3050 1450 2800 1450
Wire Wire Line
	3050 1550 2800 1550
Wire Wire Line
	3050 1650 2800 1650
$Comp
L RES R13
U 1 1 59A06687
P 2600 2200
F 0 "R13" H 2650 2200 50  0000 C CNN
F 1 "220" H 2500 2200 50  0000 C CNN
F 2 "Resistors:R_Chip_SMD_0603" H 2600 2130 30  0001 C CNN
F 3 "" V 2600 2200 30  0000 C CNN
	1    2600 2200
	1    0    0    -1  
$EndComp
$Comp
L RES R14
U 1 1 59A0668D
P 2600 2300
F 0 "R14" H 2650 2300 50  0000 C CNN
F 1 "220" H 2500 2300 50  0000 C CNN
F 2 "Resistors:R_Chip_SMD_0603" H 2600 2230 30  0001 C CNN
F 3 "" V 2600 2300 30  0000 C CNN
	1    2600 2300
	1    0    0    -1  
$EndComp
$Comp
L RES R15
U 1 1 59A06693
P 2600 2400
F 0 "R15" H 2650 2400 50  0000 C CNN
F 1 "220" H 2500 2400 50  0000 C CNN
F 2 "Resistors:R_Chip_SMD_0603" H 2600 2330 30  0001 C CNN
F 3 "" V 2600 2400 30  0000 C CNN
	1    2600 2400
	1    0    0    -1  
$EndComp
$Comp
L RES R16
U 1 1 59A06699
P 2600 2500
F 0 "R16" H 2650 2500 50  0000 C CNN
F 1 "220" H 2500 2500 50  0000 C CNN
F 2 "Resistors:R_Chip_SMD_0603" H 2600 2430 30  0001 C CNN
F 3 "" V 2600 2500 30  0000 C CNN
	1    2600 2500
	1    0    0    -1  
$EndComp
$Comp
L RES R17
U 1 1 59A0669F
P 2600 2600
F 0 "R17" H 2650 2600 50  0000 C CNN
F 1 "220" H 2500 2600 50  0000 C CNN
F 2 "Resistors:R_Chip_SMD_0603" H 2600 2530 30  0001 C CNN
F 3 "" V 2600 2600 30  0000 C CNN
	1    2600 2600
	1    0    0    -1  
$EndComp
$Comp
L RES R18
U 1 1 59A066A5
P 2600 2700
F 0 "R18" H 2650 2700 50  0000 C CNN
F 1 "220" H 2500 2700 50  0000 C CNN
F 2 "Resistors:R_Chip_SMD_0603" H 2600 2630 30  0001 C CNN
F 3 "" V 2600 2700 30  0000 C CNN
	1    2600 2700
	1    0    0    -1  
$EndComp
$Comp
L RES R19
U 1 1 59A066AB
P 2600 2800
F 0 "R19" H 2650 2800 50  0000 C CNN
F 1 "220" H 2500 2800 50  0000 C CNN
F 2 "Resistors:R_Chip_SMD_0603" H 2600 2730 30  0001 C CNN
F 3 "" V 2600 2800 30  0000 C CNN
	1    2600 2800
	1    0    0    -1  
$EndComp
$Comp
L RES R20
U 1 1 59A066B1
P 2600 2900
F 0 "R20" H 2650 2900 50  0000 C CNN
F 1 "220" H 2500 2900 50  0000 C CNN
F 2 "Resistors:R_Chip_SMD_0603" H 2600 2830 30  0001 C CNN
F 3 "" V 2600 2900 30  0000 C CNN
	1    2600 2900
	1    0    0    -1  
$EndComp
Wire Wire Line
	3050 2200 2800 2200
Wire Wire Line
	3050 2300 2800 2300
Wire Wire Line
	3050 2400 2800 2400
Wire Wire Line
	3050 2500 2800 2500
Wire Wire Line
	3050 2600 2800 2600
Wire Wire Line
	3050 2700 2800 2700
Wire Wire Line
	3050 2800 2800 2800
Wire Wire Line
	3050 2900 2800 2900
$Comp
L RES R21
U 1 1 59A06CB7
P 2600 3500
F 0 "R21" H 2650 3500 50  0000 C CNN
F 1 "220" H 2500 3500 50  0000 C CNN
F 2 "Resistors:R_Chip_SMD_0603" H 2600 3430 30  0001 C CNN
F 3 "" V 2600 3500 30  0000 C CNN
	1    2600 3500
	1    0    0    -1  
$EndComp
$Comp
L RES R22
U 1 1 59A06CBD
P 2600 3600
F 0 "R22" H 2650 3600 50  0000 C CNN
F 1 "220" H 2500 3600 50  0000 C CNN
F 2 "Resistors:R_Chip_SMD_0603" H 2600 3530 30  0001 C CNN
F 3 "" V 2600 3600 30  0000 C CNN
	1    2600 3600
	1    0    0    -1  
$EndComp
$Comp
L RES R23
U 1 1 59A06CC3
P 2600 3700
F 0 "R23" H 2650 3700 50  0000 C CNN
F 1 "220" H 2500 3700 50  0000 C CNN
F 2 "Resistors:R_Chip_SMD_0603" H 2600 3630 30  0001 C CNN
F 3 "" V 2600 3700 30  0000 C CNN
	1    2600 3700
	1    0    0    -1  
$EndComp
$Comp
L RES R24
U 1 1 59A06CC9
P 2600 3800
F 0 "R24" H 2650 3800 50  0000 C CNN
F 1 "220" H 2500 3800 50  0000 C CNN
F 2 "Resistors:R_Chip_SMD_0603" H 2600 3730 30  0001 C CNN
F 3 "" V 2600 3800 30  0000 C CNN
	1    2600 3800
	1    0    0    -1  
$EndComp
$Comp
L RES R25
U 1 1 59A06CCF
P 2600 3900
F 0 "R25" H 2650 3900 50  0000 C CNN
F 1 "220" H 2500 3900 50  0000 C CNN
F 2 "Resistors:R_Chip_SMD_0603" H 2600 3830 30  0001 C CNN
F 3 "" V 2600 3900 30  0000 C CNN
	1    2600 3900
	1    0    0    -1  
$EndComp
$Comp
L RES R26
U 1 1 59A06CD5
P 2600 4000
F 0 "R26" H 2650 4000 50  0000 C CNN
F 1 "220" H 2500 4000 50  0000 C CNN
F 2 "Resistors:R_Chip_SMD_0603" H 2600 3930 30  0001 C CNN
F 3 "" V 2600 4000 30  0000 C CNN
	1    2600 4000
	1    0    0    -1  
$EndComp
$Comp
L RES R27
U 1 1 59A06CDB
P 2600 4100
F 0 "R27" H 2650 4100 50  0000 C CNN
F 1 "220" H 2500 4100 50  0000 C CNN
F 2 "Resistors:R_Chip_SMD_0603" H 2600 4030 30  0001 C CNN
F 3 "" V 2600 4100 30  0000 C CNN
	1    2600 4100
	1    0    0    -1  
$EndComp
$Comp
L RES R28
U 1 1 59A06CE1
P 2600 4200
F 0 "R28" H 2650 4200 50  0000 C CNN
F 1 "220" H 2500 4200 50  0000 C CNN
F 2 "Resistors:R_Chip_SMD_0603" H 2600 4130 30  0001 C CNN
F 3 "" V 2600 4200 30  0000 C CNN
	1    2600 4200
	1    0    0    -1  
$EndComp
Wire Wire Line
	3050 3500 2800 3500
Wire Wire Line
	3050 3600 2800 3600
Wire Wire Line
	3050 3700 2800 3700
Wire Wire Line
	3050 3800 2800 3800
Wire Wire Line
	3050 3900 2800 3900
Wire Wire Line
	3050 4000 2800 4000
Wire Wire Line
	3050 4100 2800 4100
Wire Wire Line
	3050 4200 2800 4200
$Comp
L RES R29
U 1 1 59A07689
P 2600 4700
F 0 "R29" H 2650 4700 50  0000 C CNN
F 1 "220" H 2500 4700 50  0000 C CNN
F 2 "Resistors:R_Chip_SMD_0603" H 2600 4630 30  0001 C CNN
F 3 "" V 2600 4700 30  0000 C CNN
	1    2600 4700
	1    0    0    -1  
$EndComp
$Comp
L RES R30
U 1 1 59A0768F
P 2600 4800
F 0 "R30" H 2650 4800 50  0000 C CNN
F 1 "220" H 2500 4800 50  0000 C CNN
F 2 "Resistors:R_Chip_SMD_0603" H 2600 4730 30  0001 C CNN
F 3 "" V 2600 4800 30  0000 C CNN
	1    2600 4800
	1    0    0    -1  
$EndComp
$Comp
L RES R31
U 1 1 59A07695
P 2600 4900
F 0 "R31" H 2650 4900 50  0000 C CNN
F 1 "220" H 2500 4900 50  0000 C CNN
F 2 "Resistors:R_Chip_SMD_0603" H 2600 4830 30  0001 C CNN
F 3 "" V 2600 4900 30  0000 C CNN
	1    2600 4900
	1    0    0    -1  
$EndComp
$Comp
L RES R32
U 1 1 59A0769B
P 2600 5000
F 0 "R32" H 2650 5000 50  0000 C CNN
F 1 "220" H 2500 5000 50  0000 C CNN
F 2 "Resistors:R_Chip_SMD_0603" H 2600 4930 30  0001 C CNN
F 3 "" V 2600 5000 30  0000 C CNN
	1    2600 5000
	1    0    0    -1  
$EndComp
$Comp
L RES R33
U 1 1 59A076A1
P 2600 5100
F 0 "R33" H 2650 5100 50  0000 C CNN
F 1 "220" H 2500 5100 50  0000 C CNN
F 2 "Resistors:R_Chip_SMD_0603" H 2600 5030 30  0001 C CNN
F 3 "" V 2600 5100 30  0000 C CNN
	1    2600 5100
	1    0    0    -1  
$EndComp
$Comp
L RES R34
U 1 1 59A076A7
P 2600 5200
F 0 "R34" H 2650 5200 50  0000 C CNN
F 1 "220" H 2500 5200 50  0000 C CNN
F 2 "Resistors:R_Chip_SMD_0603" H 2600 5130 30  0001 C CNN
F 3 "" V 2600 5200 30  0000 C CNN
	1    2600 5200
	1    0    0    -1  
$EndComp
$Comp
L RES R35
U 1 1 59A076AD
P 2600 5300
F 0 "R35" H 2650 5300 50  0000 C CNN
F 1 "220" H 2500 5300 50  0000 C CNN
F 2 "Resistors:R_Chip_SMD_0603" H 2600 5230 30  0001 C CNN
F 3 "" V 2600 5300 30  0000 C CNN
	1    2600 5300
	1    0    0    -1  
$EndComp
$Comp
L RES R36
U 1 1 59A076B3
P 2600 5400
F 0 "R36" H 2650 5400 50  0000 C CNN
F 1 "220" H 2500 5400 50  0000 C CNN
F 2 "Resistors:R_Chip_SMD_0603" H 2600 5330 30  0001 C CNN
F 3 "" V 2600 5400 30  0000 C CNN
	1    2600 5400
	1    0    0    -1  
$EndComp
Wire Wire Line
	3050 4700 2800 4700
Wire Wire Line
	3050 4800 2800 4800
Wire Wire Line
	3050 4900 2800 4900
Wire Wire Line
	3050 5000 2800 5000
Wire Wire Line
	3050 5100 2800 5100
Wire Wire Line
	3050 5200 2800 5200
Wire Wire Line
	3050 5300 2800 5300
Wire Wire Line
	3050 5400 2800 5400
$Comp
L RES R37
U 1 1 59A07AF7
P 2600 6050
F 0 "R37" H 2650 6050 50  0000 C CNN
F 1 "220" H 2500 6050 50  0000 C CNN
F 2 "Resistors:R_Chip_SMD_0603" H 2600 5980 30  0001 C CNN
F 3 "" V 2600 6050 30  0000 C CNN
	1    2600 6050
	1    0    0    -1  
$EndComp
$Comp
L RES R38
U 1 1 59A07AFD
P 2600 6150
F 0 "R38" H 2650 6150 50  0000 C CNN
F 1 "220" H 2500 6150 50  0000 C CNN
F 2 "Resistors:R_Chip_SMD_0603" H 2600 6080 30  0001 C CNN
F 3 "" V 2600 6150 30  0000 C CNN
	1    2600 6150
	1    0    0    -1  
$EndComp
$Comp
L RES R39
U 1 1 59A07B03
P 2600 6250
F 0 "R39" H 2650 6250 50  0000 C CNN
F 1 "220" H 2500 6250 50  0000 C CNN
F 2 "Resistors:R_Chip_SMD_0603" H 2600 6180 30  0001 C CNN
F 3 "" V 2600 6250 30  0000 C CNN
	1    2600 6250
	1    0    0    -1  
$EndComp
$Comp
L RES R40
U 1 1 59A07B09
P 2600 6350
F 0 "R40" H 2650 6350 50  0000 C CNN
F 1 "220" H 2500 6350 50  0000 C CNN
F 2 "Resistors:R_Chip_SMD_0603" H 2600 6280 30  0001 C CNN
F 3 "" V 2600 6350 30  0000 C CNN
	1    2600 6350
	1    0    0    -1  
$EndComp
$Comp
L RES R41
U 1 1 59A07B0F
P 2600 6450
F 0 "R41" H 2650 6450 50  0000 C CNN
F 1 "220" H 2500 6450 50  0000 C CNN
F 2 "Resistors:R_Chip_SMD_0603" H 2600 6380 30  0001 C CNN
F 3 "" V 2600 6450 30  0000 C CNN
	1    2600 6450
	1    0    0    -1  
$EndComp
$Comp
L RES R42
U 1 1 59A07B15
P 2600 6550
F 0 "R42" H 2650 6550 50  0000 C CNN
F 1 "220" H 2500 6550 50  0000 C CNN
F 2 "Resistors:R_Chip_SMD_0603" H 2600 6480 30  0001 C CNN
F 3 "" V 2600 6550 30  0000 C CNN
	1    2600 6550
	1    0    0    -1  
$EndComp
$Comp
L RES R43
U 1 1 59A07B1B
P 2600 6650
F 0 "R43" H 2650 6650 50  0000 C CNN
F 1 "220" H 2500 6650 50  0000 C CNN
F 2 "Resistors:R_Chip_SMD_0603" H 2600 6580 30  0001 C CNN
F 3 "" V 2600 6650 30  0000 C CNN
	1    2600 6650
	1    0    0    -1  
$EndComp
$Comp
L RES R44
U 1 1 59A07B21
P 2600 6750
F 0 "R44" H 2650 6750 50  0000 C CNN
F 1 "220" H 2500 6750 50  0000 C CNN
F 2 "Resistors:R_Chip_SMD_0603" H 2600 6680 30  0001 C CNN
F 3 "" V 2600 6750 30  0000 C CNN
	1    2600 6750
	1    0    0    -1  
$EndComp
Wire Wire Line
	3050 6050 2800 6050
Wire Wire Line
	3050 6150 2800 6150
Wire Wire Line
	3050 6250 2800 6250
Wire Wire Line
	3050 6350 2800 6350
Wire Wire Line
	3050 6450 2800 6450
Wire Wire Line
	3050 6550 2800 6550
Wire Wire Line
	3050 6650 2800 6650
Wire Wire Line
	3050 6750 2800 6750
$EndSCHEMATC
